{
    "repos": "sgsoft-studio/pages",
    "alias": "enzaime-pages",
    "name": "Pages",
    "author": "Tedozi Manson - <a href=\"https://github.com/duyphan2502\">https://github.com/duyphan2502</a>",
    "description": "Pages management package",
    "namespace": "Enzaime\\Base\\Pages",
    "autoload": "psr-4"
}
